<svg xmlns="http://www.w3.org/2000/svg" width="24.183" height="28.888" viewBox="0 0 24.183 28.888">
  <g id="logotipo-da-apple_1_" data-name="logotipo-da-apple (1)" transform="translate(-38.692)">
    <g id="Grupo_604" data-name="Grupo 604" transform="translate(38.692 0)">
      <path id="Caminho_1669" data-name="Caminho 1669" d="M60.132,119.727a6.61,6.61,0,0,1-1.2-3.871,6.186,6.186,0,0,1,1.128-3.594,11.248,11.248,0,0,1,1.979-2.048,8.952,8.952,0,0,0-1.806-1.736,6.348,6.348,0,0,0-3.7-1.128,9.8,9.8,0,0,0-3,.59,8.693,8.693,0,0,1-2.482.59,11.167,11.167,0,0,1-2.4-.521,11.55,11.55,0,0,0-3.073-.521,5.994,5.994,0,0,0-4.93,2.5,10.3,10.3,0,0,0-1.962,6.493,17.8,17.8,0,0,0,2.552,8.732q2.586,4.5,5.225,4.5a6.276,6.276,0,0,0,2.291-.59,6.692,6.692,0,0,1,2.465-.573,7.676,7.676,0,0,1,2.621.555,8.027,8.027,0,0,0,2.43.555q2.222,0,4.462-3.4a16.757,16.757,0,0,0,2.135-4.34A5.281,5.281,0,0,1,60.132,119.727Z" transform="translate(-38.692 -100.822)" fill="#fff"/>
      <path id="Caminho_1670" data-name="Caminho 1670" d="M237.365,5.486a7.125,7.125,0,0,0,1.615-2.4,6.622,6.622,0,0,0,.5-2.361c0-.046,0-.1-.009-.174s-.008-.127-.008-.173a1.661,1.661,0,0,1-.043-.191A1.611,1.611,0,0,0,239.379,0a6.919,6.919,0,0,0-4.34,2.57,7.918,7.918,0,0,0-1.354,4.461,9.7,9.7,0,0,0,1.805-.3A4.92,4.92,0,0,0,237.365,5.486Z" transform="translate(-221.828 0)" fill="#fff"/>
    </g>
  </g>
</svg>
