<svg id="Grupo_592" data-name="Grupo 592" xmlns="http://www.w3.org/2000/svg" width="116.561" height="116.622" viewBox="0 0 116.561 116.622">
  <g id="Grupo_547" data-name="Grupo 547" transform="translate(3.492 3.542)">
    <g id="Grupo_545" data-name="Grupo 545">
      <path id="Caminho_1612" data-name="Caminho 1612" d="M2458.571,1240.13a54.806,54.806,0,0,1-107.332-22.207c.07-.419.163-.815.256-1.234a54.784,54.784,0,0,1,103.095-11.662,54.978,54.978,0,0,1,3.98,35.1Z" transform="translate(-2350.219 -1173.604)" fill="#f7c714"/>
    </g>
    <g id="Grupo_546" data-name="Grupo 546">
      <path id="Caminho_1613" data-name="Caminho 1613" d="M2458.571,1240.13a54.806,54.806,0,0,1-107.332-22.207c.07-.419.163-.815.256-1.234a54.784,54.784,0,0,1,103.095-11.662,54.978,54.978,0,0,1,3.98,35.1Z" transform="translate(-2350.219 -1173.604)" fill="none" stroke="#66142e" stroke-miterlimit="10" stroke-width="0"/>
    </g>
  </g>
  <g id="Grupo_548" data-name="Grupo 548" transform="translate(4.046 3.542)" opacity="0.55">
    <path id="Caminho_1614" data-name="Caminho 1614" d="M2460.4,1240.13c-.3,1.35-.629,2.653-1.024,3.957a54.805,54.805,0,0,0-106.773-23.393c.187-1.327.443-2.677.721-4A54.806,54.806,0,0,1,2460.4,1240.13Z" transform="translate(-2352.6 -1173.605)" fill="#fff"/>
  </g>
  <g id="Grupo_549" data-name="Grupo 549" transform="translate(3.512 39.202)">
    <path id="Caminho_1615" data-name="Caminho 1615" d="M2458.636,1357.666a54.794,54.794,0,1,1-107.052-23.44,52.45,52.45,0,0,1,2.188-7.426,54.807,54.807,0,0,0,106,23.231A58.756,58.756,0,0,1,2458.636,1357.666Z" transform="translate(-2350.304 -1326.8)" fill="#f89e1d"/>
  </g>
  <g id="Grupo_552" data-name="Grupo 552" transform="translate(20.1 20.107)">
    <g id="Grupo_550" data-name="Grupo 550">
      <path id="Caminho_1616" data-name="Caminho 1616" d="M2451.6,1320.311a38.211,38.211,0,1,1,45.507-29.143A38.259,38.259,0,0,1,2451.6,1320.311Z" transform="translate(-2421.569 -1244.769)" fill="#f9dd6a"/>
    </g>
    <g id="Grupo_551" data-name="Grupo 551">
      <path id="Caminho_1617" data-name="Caminho 1617" d="M2451.6,1320.311a38.211,38.211,0,1,1,45.507-29.143A38.259,38.259,0,0,1,2451.6,1320.311Z" transform="translate(-2421.569 -1244.769)" fill="none" stroke="#66142e" stroke-miterlimit="10" stroke-width="0"/>
    </g>
  </g>
  <g id="Grupo_553" data-name="Grupo 553" transform="translate(20.433 20.092)" opacity="0.55">
    <path id="Caminho_1618" data-name="Caminho 1618" d="M2498.186,1291.118c-.209,1-.489,2-.768,2.956A38.215,38.215,0,0,0,2423,1277.757c.14-1,.3-2,.535-3a38.212,38.212,0,1,1,74.651,16.364Z" transform="translate(-2423 -1244.704)" fill="#fff"/>
  </g>
  <g id="Grupo_554" data-name="Grupo 554" transform="translate(41.057 32.451)">
    <path id="Caminho_1619" data-name="Caminho 1619" d="M2540.394,1334.788c-1.071,4.888-4.865,8.613-11.22,9.171l-1.3,5.936-7.565-1.652,1.094-5.005a25.622,25.622,0,0,1-9.8-4.609l3.375-6.867a22.977,22.977,0,0,0,9.194,4.539c4.028.885,6.518-.326,7.076-2.863.535-2.421-1-4.19-5.307-6.89-5.959-3.654-9.381-8.147-8.147-13.8,1.164-5.33,5.726-8.869,12.22-8.985l1.3-5.959,7.565,1.653-1.21,5.54a22.869,22.869,0,0,1,6.82,3.4l-3.468,6.681a18.9,18.9,0,0,0-7.7-3.631c-3.794-.838-6.029.489-6.471,2.514-.535,2.468,1.42,4.051,6.006,7.053C2539.137,1325.035,2541.581,1329.317,2540.394,1334.788Z" transform="translate(-2511.6 -1297.8)" fill="#66142e"/>
  </g>
  <g id="Grupo_555" data-name="Grupo 555" transform="translate(3.492 7.568)" opacity="0.27">
    <path id="Caminho_1620" data-name="Caminho 1620" d="M2450.167,1210.57l-95.856,51.862a54.622,54.622,0,0,1-3.072-31.262l74.441-40.27A54.536,54.536,0,0,1,2450.167,1210.57Z" transform="translate(-2350.219 -1190.9)" fill="#fce5e5"/>
  </g>
  <g id="Grupo_556" data-name="Grupo 556" transform="translate(11.611 34.942)" opacity="0.27">
    <path id="Caminho_1621" data-name="Caminho 1621" d="M2485.378,1320.3l-90.153,51.862a38.588,38.588,0,0,1-10.126-11.592l96.251-52.071C2483.958,1314.017,2484.727,1314.11,2485.378,1320.3Z" transform="translate(-2385.1 -1308.5)" fill="#fce5e5"/>
  </g>
  <g id="Grupo_557" data-name="Grupo 557" transform="translate(17.164 17.204)">
    <path id="Caminho_1622" data-name="Caminho 1622" d="M2450.1,1314.56a41.111,41.111,0,1,1,40.176-32.332A41.208,41.208,0,0,1,2450.1,1314.56Zm-.047-76.443a35.437,35.437,0,1,0,7.589.838A35.062,35.062,0,0,0,2450.05,1238.117Z" transform="translate(-2408.954 -1232.297)" fill="#66142e"/>
  </g>
  <g id="Grupo_558" data-name="Grupo 558" transform="translate(0 0)">
    <path id="Caminho_1623" data-name="Caminho 1623" d="M2393.524,1275.01a58.684,58.684,0,0,1-12.477-1.35A57.626,57.626,0,0,1,2356.7,1261.9a58.794,58.794,0,0,1-12.849-14.687,59.685,59.685,0,0,1-4.283-8.427,58.057,58.057,0,0,1-3.259-33.264c.093-.489.187-.884.256-1.3a58.375,58.375,0,0,1,69.413-44.483,58.271,58.271,0,0,1,44.437,69.437A58.286,58.286,0,0,1,2393.524,1275.01Zm0-109.613a51.414,51.414,0,0,0-50.116,40.34c-.07.372-.14.722-.233,1.094a51.268,51.268,0,0,0,6.634,36.731,51.457,51.457,0,0,0,11.313,12.943,51.362,51.362,0,0,0,32.425,11.522,51.416,51.416,0,0,0,50.117-40.339h0a51.569,51.569,0,0,0,.931-16.341,50.511,50.511,0,0,0-4.632-16.55,52.033,52.033,0,0,0-4.167-7.239,51.006,51.006,0,0,0-22.9-18.412,48.94,48.94,0,0,0-8.357-2.584A54.3,54.3,0,0,0,2393.524,1165.4Z" transform="translate(-2335.218 -1158.388)" fill="#66142e"/>
  </g>
</svg>
